{
"0": "เสียง", 
"1": "การเล่น", 
"2": "กราฟฟิก", 
"3": "การนำเข้า", 
"4": "อื่นๆ", 
"5": "เสียงทั้งหมด:%d", 
"6": "เสียงเอฟเฟ็กต์:%d", 
"7": "ความละเอียด", 
"8": "เต็มจอ", 
"9": "FPS ไม่จำกัด", 
"10": "เเสดง FPS", 
"12": "ใช้ตัวช่วยคำนวนออฟเซ็ท", 
"13": "ออฟเซ็ทการกด:%+d", 
"14": "ออฟเซ็ทการแสดงผล:%+d", 
"15": "ความกว้างของคอลัมน์โหมดคีย์", 
"16": "ความกว้างของคอลัมน์คงที่", 
"17": "ความกว้างคงที่ของแผง", 
"18": "ตำแหน่ง ดีเจ ดิสก์ ด้านซ้าย", 
"19": "ซ่อนคลิปพื้นหลัง", 
"20": "ซ่อนแป้นพิมพ์เสมือนจริง", 
"21": "ใช้แป้นพิมพ์ขนาดเต็ม", 
"22": "รีเช็ตเกมส์การตั้งค่าที่สำคัญ", 
"23": "โหลดชาร์ตใหม่ทั้งหมด", 
"24": "เข้าไปดูบนเว็บไซต์", 
"25": "ภาษา", 
"26": "เสียงของระบบ:%d", 
"27": "ตำแหน่งคอลัมน์โหมดคีย์:%d%%", 
"28": "ตรวจสอบหาอัพเดท", 
"29": "ใช้คอลัมน์เเบบ 3D", 
"30": "มุมคอลัมน์:%d", 
"31": "เปิดใช้แป้นพิมพ์ภายนอก", 
"32": "เปิกเอฟเฟ็กต์สูงสุด", 
"33": "แสดงแถบออฟเซ็ทระหว่างเล่น", 
"34": "เปิดเสียงปุ่ม", 
"35": "เปลี่ยนเสียงปุ่ม", 
"36": "ออกจากระบบ", 
"37": "skin ที่ใช้อยู่", 
"38": "เล่นแนวตั้ง", 
"39": "เปิดการสัมผัสหน้าจอ", 
"40": "ออก", 
"41": "ซ่อนเส้นคอลัมน์", 
"42": "ประสิทธิภาพของเสียง:%d", 
"43": "ความช่วยเหลือ", 
"44": "การทดลอง", 
"45": "ใช้เอ็นจินเสียงปุ่มกดแบบใหม่", 
"46": "ข้อเสนอแนะหรือรายงานข้อผิดพลาด", 
"47": "ดูตัวอย่าง UI โหมดคีย์", 
"48": "เครือข่าย", 
"49": "เซิร์ฟเวอร์", 
"50": "ระดับเสียงเพลง", 
"51": "ระดับเสียงเอฟเฟ็กต์", 
"52": "ออฟเซ็ทการกด", 
"53": "ออฟเซ็ทการแสดงผล", 
"54": "มุมคอลัมน์", 
"55": "กำหนดตำแหน่งเก็บชาร์ต", 
"56": "หมุนพื้นที่เล่น", 
"57": "ใช้ไดรเวอร์ ASIO", 
"58": "แสดงชื่อเป็นภาษาต้นฉบับ", 
"59": "ปิดการเลื่อนของตัวแก้ไขคีย์", 
"60": "เวอร์ชั่น", 
"61": "แพลตฟอร์ม", 
"62": "แสดงเพลงแบบแบ่งเป็นช่อง", 
"63": "ใช้ OpenSL", 
"64": "จัดการ skin", 
"65": "ล้อเมาส์หมุนตรงกันข้า", 
"66": "เปิดเสียงปุ่มเมื่อถึงตอนจบ", 
"67": "กดเลือกเพื่อเปลี่ยนการผูกปุ่ม", 
"68": "ตั้งค่าปุ่มสำหรับ", 
"69": "เก็บโฮสต์เซิร์ฟเวอร์", 
"70": "ล็อค FPS", 
"71": "Refresh Rate",
"72": "Graphic Effect",
"73": "Scene Scale",
"74": "3D Motion Compensation",
"75": "3D Thickness Compensation",
"76": "Cover Position",
"77": "Skip keysound preview",
"78": "Hold Adjustment",
"79": "Stop On Hit",
"80": "Stop On Judge",
"81": "Snap to Judge",
"82": "Hit Distance",
"83": "Backup",
"84": "Note Appearance",
"85": "Show Touch Point",
"86": "ISSUES\nREPORT",
"100": "ลบเพลง", 
"101": "เปิดไดเรกทอรีเพลง", 
"102": "ลบชาร์ต", 
"103": "คะเเนนที่มีบนเครื่อง", 
"104": "เปิดดูบนร้านค้า", 
"105": "ไม่เสถียร", 
"106": "เลือกการปรับแต่ง", 
"107": "โหมดที่ต้องการ", 
"108": "แตะเพื่อค้นหา", 
"109": "เเก้ไขชาร์ตนี้", 
"110": "สร้างชารต์ใหม่", 
"111": "รับชาร์ตเพิ่ม", 
"112": "สร้างชาร์ตใหม่", 
"113": "กลับ", 
"114": "อันดับ", 
"115": "ตัวเลือก", 
"116": "บนเครื่อง", 
"117": "ความคืบหน้า", 
"118": "เสร็จสิ้น", 
"119": "หยุดไว้ก่อน", 
"120": "ตกลง", 
"121": "การตัดสิน", 
"122": "แสดงชาร์ตทั้งหมด", 
"123": "ไปดูบนเว็บไซต์", 
"124": "ไม่พร้อมใช้งาน", 
"125": "ไม่ทราบ", 
"126": "ก๊อปปี้และแก้ไข", 
"127": "จัดอันดับบนเครื่อง", 
"128": "จัดอันดับออนไลน์", 
"129": "สคอร์ที่ดีที่สุด", 
"130": "ความเร็วโน้ต", 
"131": "รายการดาวน์โหลด", 
"132": "ค้นหา", 
"133": "วิธีการนำชาร์ตเข้า", 
"134": "กำลังเปลี่ยนไฟล์เสียงให้เป็นไฟล์เสียงแบบ OGG", 
"135": "คุณแน่ใจหรอว่าจะลบชาร์ต?", 
"136": "คุณแน่ใจหรอว่าจะลบเพลง?", 
"137": "นำเข้าชาร์ต", 
"138": "ดาวน์โหลดเสร็จแล้ว", 
"139": "แบ่งปันชาร์ต...", 
"140": "สร้างคอลเลคชั่นใหม่", 
"141": "คุณแน่ใจหรอว่าจะลบคอลเลคชั่น?", 
"142": "เพิ่มแล้ว", 
"143": "ลบแล้ว", 
"144": "ชาร์ตทั้งหมด", 
"145": "พิมพ์ที่นี่เพื่อค้นหา", 
"146": "รายการข้อความ", 
"147": "ไม่มีข้อความ :(", 
"148": "เพลงที่มี", 
"149": "ชาร์ตที่มี", 
"150": "ลบ", 
"151": "แบ่งปัน", 
"170": "รายชื่อเพื่อน", 
"171": "ค้นหาผู้เล่น", 
"172": "ส่งข้อความ", 
"173": "เชิญเข้าห้อง", 
"174": "เสียงสำหรับชาร์ตใหม่", 
"175": "นำเข้า skin", 
"176": "ความคิดเห็น", 
"177": "จัดอันดับทั่วโลก", 
"178": "เพลง", 
"179": "ดูรีเพลย์", 
"180": "ประจำสัปดาห์", 
"181": "Mute",
"182": "Share as Song Pack",
"183": "Share as Chart Pack",
"184": "Watch Live Stream",
"185": "Stop Watch",
"186": "Live Streaming",
"187": "Start Live",
"188": "Finish Live",
"200": "ชมการเล่นที่สมบูรณ์แบบของมาร์โล", 
"201": "วางโน้ตแบบสุ่ม", 
"202": "วางโน็ตกลับด้าน", 
"203": "ไม่เปลี่ยนแปลงความเร็วไปตาม BPM", 
"204": "เพิ่มความเร็ว 20%", 
"205": "เพิ่มความเร็ว 50%", 
"206": "ซ่อนโน้ตเมื่อเข้าใกล้", 
"207": "การตัดสินแบบดั้งเดิม", 
"208": "ความเร็วช้าลง 20%", 
"209": "อย่าตายล่ะ ;)", 
"210": "ใช้ระดับการตัดสินเดียวกัน", 
"211": "เล่นกับโน้ตกลับหัว .^.", 
"250": "ความยาก", 
"251": "เฉพาะเจาะจง", 
"252": "ช่วยเลือ", 
"253": "รีเซ็ท", 
"254": "เพิ่มคะแนน", 
"255": "ไม่อนุญาตการปรับแต่งนี้", 
"300": "การผูกคีย์", 
"301": "กด [ Esc ] เพื่อรีเซ็ต", 
"302": "ลองออฟเช็ท: %d", 
"303": "อยากจะออกจริงหรอ o_o", 
"304": "ออกไปยังตำแหน่งนี้", 
"305": "คะแนน", 
"306": "คอมโบ้", 
"307": "ความแม่นยำ", 
"308": "ออฟเซ็ทชาร์ต", 
"309": "ลดแสงพื้นหลัง", 
"310": "เสร็จ", 
"311": "Watch Player",
"312": "Start Live Streaming",
"313": "The Host is offline",
"314": "Thank you for watching",
"315": "The Host has paused",
"316": "Start watching: ",
"317": "Watch Status Display At",
"318": "Top",
"319": "Left",
"320": "Right",
"321": "Hide",
"400": "คลิ๊กเพื่อเข้าสู่ระบบ", 
"401": "เข้าสู่ระบบ", 
"402": "โปรไฟล์", 
"403": "สมัคร", 
"404": "ชื่อผู้ใช้", 
"405": "รหัสผ่าน", 
"406": "ลืมรหัสหรอ? @-@", 
"500": "กรุณาเพิ่มเพลงไปที่ไดเรกทอรี \"<pending>\"", 
"501": "กรุณาเพิ่มเพลงไปที่ <sdcard/data/malody/pending>", 
"502": "โปรดลากเพลงไปลงใน iTunes", 
"503": "โปรดลากเพลง (zip file) ลงบน Malody", 
"504": "กรุณาแพ็คไฟล์ Skin ของคุณให้เป็น msz(zip)", 
"505": "กรุณาเพิ่มไฟล์เสียงกำหนดเอง (สกุล .wav) ไปในไดเรกทอรี่ <Skin>", 
"506": "วัดขนาดออฟเช็ทเสียง", 
"507": "กด F หรือสัมผัสหน้าจอเมื่อโน็ตและแถบสีแดงทับซ้อนกัน", 
"600": "ทั้งหมด", 
"601": "ชื่อ", 
"602": "ความยาว", 
"603": "BPM", 
"604": "เวลานำเข้า", 
"605": "เสถียร", 
"606": "เบต้า", 
"607": "อาลฟา", 
"608": "ชาร์ตออฟไลน์", 
"609": "อัพเดต", 
"650": "สูงสุดก่อน", 
"651": "ต่ำสุดก่อน", 
"700": "สนับสนุน", 
"701": "สนับสนุนผู้สร้างชาร์ตนี้โดยการให้ 50 เหรียญ ถ้าคุณชอบชาร์ตนี้ ♡＼(^ω^＼)", 
"702": "บันทึกอันดับใหม่แล้ว: #%d", 
"703": "คะแนนออนไลน์ที่ดีที่สุดของคุณคือ %d (+%d)", 
"704": "บริจาคสำเร็จ ヽ(´▽｀)/", 
"705": "ลองใหม่", 
"706": "กำลังส่ง", 
"707": "ชาร์ตไม่เสถียร", 
"708": "การส่งผิดพลาด", 
"709": "แนะนำ", 
"710": "ไม่\nแนะนำ", 
"711": "เขียน\nคอมเม้นต์", 
"712": "แนะนำชาร์ตนี้ให้ผู้เล่นคนอื่น", 
"713": "ชาร์ตยังนี้ต้องการการปรับปรุงเพิ่มเติม", 
"714": "่คอมเม้นต์สำหรับชาร์ตนี้บนเว็บไชต์", 
"715": "รีวิว", 
"716": "ส่งไปที่:", 
"717": "อันดับทั่วโลกถูกบันทึกแล้ว:", 
"718": "ดูย้อนหลัง", 
"719": "อันดันทั่วโลก", 
"720": "บริจาค 50 เหรียญ", 
"721": "บริจาค 500 เหรียญ ＼(☆o☆)／", 
"722": "ยกเลิกการแนะนำ", 
"723": "ยกเลิกการไม่แนะนำ", 
"724": "ออก", 
"725": "ต่อ", 
"726": "อันดับรอบนี้", 
"727": "ส่งคะแนนแล้ว", 
"800": "กรุณาเข้าสู่ระบบเพื่อเริ่มคุยกับผู้เล่นอื่น (｀∀´) (^.^）", 
"801": "คุณกำลังอยู่ในห้องแชทสาธารณะ กรุณาใช้ภาษาอังกฤษ", 
"802": "เพิ่มเป็นเพื่อน", 
"803": "เพื่อน", 
"804": "เพื่อนร่วมกัน", 
"805": "ความสำเร็จ", 
"806": "ปริศนา", 
"807": "ออกจากระบบ", 
"808": "ช่อง", 
"809": "สร้างห้อง", 
"810": "รายการห้อง", 
"811": "ชื่อห้อง", 
"812": "ผู้เล่น", 
"813": "กำลังรอ", 
"814": "กำลังเล่น", 
"815": "แสดงห้องที่กำลังรอ", 
"816": "พร้อม! ٩(^ᴗ^)۶", 
"817": "ยกเลิกพร้อม ( ´ ｰ｀)", 
"818": "เริ่ม", 
"819": "เตะผู้เล่น", 
"820": "โอนสิทธิเจ้าของ", 
"821": "โหมดการให้คะแนน", 
"822": "ชนะโดยได้คะแนนสูงสุด", 
"823": "ชนะโดยได้คอมโบ้สูงสุด", 
"824": "ชนะโดยได้ความแม่นยำสูงสุด", 
"825": "ซ่อนโน้ต", 
"826": "ใบ้", 
"827": "โหมดทีม", 
"828": "โซโล่", 
"829": "สองทีม", 
"830": "การปรับแต่ง", 
"831": "เล่นครั้งล่าสุด", 
"832": "%d วันที่แล้ว", 
"833": "%d ชั่วโมงที่แล้ว", 
"834": "%d นาทีที่แล้ว", 
"835": "เวลาที่เพิ่มแล้ว", 
"836": "เวลาการเล่นครั้งล่าสุด", 
"837": "ไม่ได้เลือกชาร์ต", 
"838": "เข้าร่วม", 
"839": "ชนะติดต่อกัน %d ครั้ง!! \\(^O^)/", 
"840": "ปีที่แล้ว", 
"841": "แสดงชาร์ตทั้งหมด", 
"842": "แสดงความ้ห็นต่อชาร์ต", 
"843": "ห้องส่วนตัว", 
"844": "ใส่รหัสห้อง", 
"845": "เล่นแล้ว", 
"846": "ชาร์ตที่เล่นแล้ว", 
"847": "อันดับสูงสุด", 
"848": "ชาร์ต", 
"849": "ความสำเร็จ", 
"850": "ปริศนา", 
"851": "โปรไฟล์", 
"852": "ทอง", 
"853": "โน้ต", 
"854": "แก้ไขโปรไฟล์", 
"855": "เลือกหรือสร้างห้อง", 
"856": "ห้องสาธารณะ", 
"857": "เพศ", 
"858": "วัน/เดือน/ปีเกิด", 
"859": "ประเทศ", 
"860": "เนื้อหาโปรไฟล์", 
"861": "ชาย", 
"862": "หญิง", 
"863": "Select or create a room",
"864": "Select Song",
"865": "Select Chart",
"866": "10-Player Room",
"867": "Dan Records",
"868": "Are you sure to delete your account with play data",
"869": "Thank You for Playing!",
"900": "เล่นเเบบออนไลน์", 
"901": "เล่นเเบบออฟไลน์", 
"902": "เครื่องมือช่วยตรวจจับออฟเซ็ท", 
"903": "คลิก \"เริ่ม\" เพื่อเล่นจังหวะ", 
"904": "แตะที่หน้าจอหรือกด F พร้อมจังหวะ เพื่อให้ได้ผลที่เสถียร", 
"905": "เริ่ม", 
"906": "รีเซ็ต", 
"907": "เเสดง โน็ต", 
"908": "เล่นเสียง", 
"909": "กด F ตามจังหวะเพื่อให้ได้ผลที่ดี", 
"910": "ตั้งค่า", 
"911": "ห้องคุย", 
"912": "เครือข่าย", 
"913": "ปรับแต่ง", 
"914": "ล็อบบี้", 
"915": "ห้อง", 
"916": "โปรไฟล์", 
"917": "ผล", 
"918": "สกิน", 
"919": "ร้าน", 
"920": "ภารกิจ", 
"921": "ชาร์ต", 
"922": "เพลง", 
"923": "ข่าว", 
"924": "ผลงานที่ส่ง", 
"925": "คอลเลคชั่น", 
"926": "แก้ไขโฟลเดอร์", 
"927": "ร้านไอเท็ม",
"1000": "กรุณาเข้าสู่ระบบ", 
"1001": "โปรดรอ", 
"1002": "กด F หรือสัมผัสจอตามเสียงติ๊กของจังหวะ", 
"1003": "คุณมีคะแนนไม่น่าพอใจ หรือมีออฟเช็ตไม่เเม่นยำ", 
"1004": "คุณต้องการให้มันปรับอัตโนมัตหรือไม่?", 
"1005": "คุณไม่ได้มีชาร์ตนี้", 
"1006": "การปรับออฟเช็ทแบบไดนามิก", 
"1007": "ปรับออฟเซ็ตเสียงอัตโนมัติขณะเล่น", 
"1008": "เอนจินเสียงคีย์ใหม่สามารถให้ประสบการณ์เล่นชาร์ตที่มีคีย์เสียงที่ดีกว่าได้", 
"1009": "คุณกำลังใช้เวอร์ชั่นล่าสุดของมาโลดี้", 
"1010": "ยินดีต้อนรับสูร้านค้ามาโลดี้! นี่คือรายการชาร์ตเสถียร 80 ชาร์ตที่ถูกอัพโหลดโดยผู้เล่นจากทั่วโลก! คุณสามารถไปที่ https://m.mugzone.net/ เพื่อดูชาร์ตเพิ่มเติมหรืออัพโหลดชาร์ตตัวเองได้", 
"1011": "แตะสองครั้งเพื่อเล่นชาร์ตนี้", 
"1012": "หมดเวลา", 
"1013": "ขอแนะนำให้ใช้ตัวคำนวนออฟเซ็ตอัตโนมัติก่อนการเล่นครั้งแรก เพื่อประสบการณ์การเล่นที่ดีที่สุด (ออฟเซ็ตเก่าคุณจะถูกรีเซ็ต)", 
"1014": "ค่าเริ่มต้น", 
"1015": "กด Space เพื่อข้าม", 
"1016": "แตะเพื่อข้าม", 
"1017": "ผู้เล่นเยี่ยมชม", 
"1018": "แน่ใจว่าจะออกจาก Malody?", 
"1019": "ข้อผิดพลาดเซิร์ฟเวอร์", 
"1020": "ตกลง", 
"1021": "ยกเลิก", 
"1022": "นำไปตั้งเป็นออฟเช็ทใหม่", 
"1023": "ปรับใช้ตั้งเป็นออฟเซ็ตประจำชาร์ต", 
"1024": "Malody ไม่สามารถโหลดเพลงได้ ⊙﹏⊙", 
"1025": "ลองโหลดใหม่", 
"1026": "ลบเพลง", 
"1027": "ใช้เพลงนี้เพื่อสร้างชาร์ตใหม่หรือไม่?", 
"1028": "ใช้ภาพนี้เป็นพื้นหลัง?", 
"1029": "เพลงนี้ไม่มีชาร์ต", 
"1030": "คุณต้องการดูรีเพลย์มั้ย?", 
"1031": "คุณต้องการทำอะไร?", 
"1032": "การนำเข้าสกินสำเร็จ", 
"1033": "การนำเข้าสกินผิดพลาด ✘Д✘", 
"1034": "แน่ใจหรือว่าจะลบสกินนี้?", 
"1035": "โปรดเลือกโหมดของชาร์ต", 
"1036": "เมื่อลบคอลลั่มหนึ่ง โน้ตทั้งหมดบนคอลลั่มนั้นจะหายไป แน่ใจหรอว่าจะลบ?", 
"1037": "การเปลี่ยนแปลงชาร์ตที่ไม่ได้สร้างจาก Malody ยังอยู่ในขั้นทดลอง", 
"1038": "แสดงชาร์ตทั้งหมดของเพลงรวมถึง: \nStable ที่ถูกเผยแพร่ ยอมรับคะแนนจากการส่ง\nเบต้า/อาลฟา ชาร์ตกำลังทำ", 
"1039": "เลื่อนไปถึงจุดที่ต้องการให้ก๊อปปี้ถึงแล้วกดปุ่มก๊อปปี้อีกที", 
"1040": "กดปุ่ม [วาง] เพื่อวางโน้ต", 
"1041": "คลิกเพื่อดำเนินการต่อ", 
"1042": "กดเพื่อแชท", 
"1043": "ดำเนินการสำเร็จ", 
"1044": "นำเข้าชาร์ตสำเร็จ", 
"1045": "นำเข้าชาร์ตไม่สำเร็จ (;o;)", 
"1046": "ตั้งปุ่มรองสำหรับแผ่นดิสก์", 
"1047": "มาโลดี้รองรับคีย์บอร์ด OTG บนแอนดรอยด์ โปรดเช็คให้แน่ใจว่าคีย์บอร์ดเชื่อมต่อแล้ว", 
"1048": "คุณถูกกล่าวถึงในช่องสาธารณะ O_o", 
"1049": "หากคุณชอบมาโลดี้ โปรดให้คะแนนพวกเราบนแอปสตอร์หรือกูเกิลเพลย์ เพื่อให้คนอื่นรู้จักเกม O(∩_∩)O", 
"1051": "ทำเลย!", 
"1052": "พรีวิวโหมดวงแหวน", 
"1053": "โปรดเช็คให้แน่ใจว่าอุปกรณ์ของคุณรองรับเอาท์พุตแบบ ASIO เพื่อใช้ฟีเจอร์นี้", 
"1054": "ออกแล้วเข้าใหม่เพื่อให้เห็นผล", 
"1055": "มาโลี้เป็นของขวัญสำหรับผู้รักเกมจับจังหวะ ♡ヽ(´▽｀)/", 
"1056": "สกินนี้มีราคา %d ทอง", 
"1057": "เปลี่ยนออฟเซ็ตโดย:", 
"1058": "กำลังเข้าสู่ระบบ", 
"1059": "เข้าสู่ระบบแล้ว", 
"1060": "เลือกระดับความยาก", 
"1061": "ยกเลิกพร้อมก่อน", 
"1062": "ผู้เล่นอื่นไม่พร้อม", 
"1063": "กำลังดาวน์โหลดแล้ว", 
"1064": "เชื่อมต่อกับเซิร์ฟเวอร์แล้ว", 
"1065": "คุณเป็นเจ้าของห้องแล้ว", 
"1066": "ทองคุณหมดอ่ะ Q_Q ถ้าไม่มีคุณจะซื้อชาร์ตมาเล่นไม่ได้ หาทองโดยการเล่นชาร์ตหรือทำภารกิจ!", 
"1067": "ตอบเร็ว", 
"1068": "พร้อม!", 
"1069": "มาเริ่มกัน!", 
"1070": "เดี๋ยวก่อนนะ!", 
"1071": "ยากไปอ่ะ (×_×;", 
"1072": "ง่ายไปไอ้ชาย (｀-_ゝ-)", 
"1073": "จีจี อีซี่", 
"1074": "เอาอีกๆ!", 
"1075":"We are in Early Access!\nThis means not every functionality of the game may work properly, but please make sure to report what you found annoying or simply wrong to you.\nThanks for playing Malody, and hope you will be back when the game is complete!",
"1100": "แน่ใจหรอว่าจะล็อกเอาท์", 
"1101": "รีเซ็ตการเชื่อมปุ่มแล้ว", 
"1102": "การโหลดชาร์ตใหม่อาจใช้เวลาซักครู่ ดำเนินการต่อมั้ย?", 
"1103": "ปลดล็อคความสำเร็จ!", 
"1104": "ปลดล็อคปริศนา", 
"1105": "เพิ่มเข้าคอลเลคชั่นแล้ว", 
"1106": "บันทึกโปรไฟล์ไม่สำเร็จ", 
"1107": "แน่ใจหรือว่าจะจ่าย 5000 ทองแลกกับแบนเนอร์กำหนดเอง?", 
"1108": "มีทองไม่มากพอ", 
"1109": "แน่ใจหรือว่าจะเปลี่ยนชื่อในราคา 80000 ทอง? (เปลี่ยนได้ทุก 180 วัน)", 
"1110": "ออกจากห้อง?", 
"1111": "ฟรีเจอร์นี้อยู่ระหว่างการพัฒนา ＾∇＾", 
"1112": "คุณไม่ได้อยู่ในห้อง", 
"1113": "จ่าย %d ทองเพื่อแลก 1 สล็อต", 
"1114": "การจ่ายของคุณสำเร็จแล้ว", 
"1115": "การจ่ายของคุณถูกยกเลิกเนื่องจากเกิดข้อผิดพลาด", 
"1116": "ส่งอีเมลรีเซ็ตรหัสผ่านไปให้แล้ว", 
"1117": "ล้างคะแนนบนเครื่อง?", 
"1118": "การซื้อสำเร็จ", 
"1119": "ด้วยโหมดเทอร์โบ คุณเปลี่ยนกฎการตัดสินยังไงก็ได้ แต่เซิร์ฟเวอร์จะไม่รับคะแนน", 
"1120": "การตัดสินตอนจบ", 
"1121": "นิ้วต่างกัน", 
"1122": "พลาดจากการกดเร็ว", 
"1123": "ห้ามหยุด", 
"1124": "ความเร็วเสียง", 
"1125": "กำลังสแกนโฟลเดอร์ชาร์ต", 
"1126": "รีเฟรชชาร์ตแล้ว", 
"1127": "Saved to:",
"1128": "New version available",
"1129": "Pause and Continue is disabled",
"1130": "Only Players on Malody V can enter 10-player room",
"1131": "Share success",
"1200": "เลือกการกระทำ", 
"1201": "เลือกการเรียงลำดับ", 
"1202": "ดำเนินการต่อมั้ย?", 
"1203": "เลือกโหมด", 
"1204": "เลือกของที่จะนำเข้า", 
"1205": "เลือกสไตล์ชาร์ต", 
"1206": "เลิกอัพโหลด?", 
"1207": "เลือกจำนวนทองที่ต้องการบริจาค", 
"1208": "Select mute day(s)",
"1209": "Shortcut",
"1210": "Upload And Share chart to other players",
"1211": "Are you sure to share the skin to workshop",
"1300": "Masterpiece",
"1301": "Very Positive",
"1302": "Positive",
"1303": "Mostly Positive",
"1304": "Mixed",
"1305": "Mostly Negative",
"1306": "Negative",
"1307": "Very Negative",
"2000": "การลบล้มเหลว", 
"2001": "ไม่สามารถลบชาร์ต SM ได้", 
"2002": "ส่งข้อความล้มเหลว", 
"2003": "เวอร์ชั่นที่คุณใช้เก่าเกินไป โปรดอัปเดตเป็นเวอร์ชันล่าสุด", 
"2004": "ชาร์ตไม่เสถียร", 
"2005": "เข้าสู่ระบบล้มเหลว (×_×; กรุณาลองอีกครั้งภายหลัง", 
"2006": "เข้าสู่ระบบล้มเหลว ✘Д✘ ชื่อผู้ใช้หรือรหัสผ่านไม่ตรงกัน", 
"2007": "กรุณาเลือกตำแหน่งมาทีหลังตำแหน่งเริ่มต้น", 
"2008": "โปรดลบโน็ตอื่นๆ ที่ตำเเหน่ง Hold", 
"2009": "ไม่สามารถคัดลอกไฟล์ไปยังโฟลเดอร์ชาร์ต (•̩̩̩̩＿•̩̩̩̩)", 
"2010": "กดค้างก่อน", 
"2011": "ไม่สามารถวางโน้ตที่นี่", 
"2012": "สนับสนุนเฉพาะรูปแบบ PNG และ JPG", 
"2013": "ไม่สามารถแก้ไขชาร์ตแบบไม่ใช่ mc ได้", 
"2014": "สนับสนุนเฉพาะฟอร์แมต MP3 และ OGG", 
"2015": "SID ผิด", 
"2016": "CID ผิด", 
"2017": "คุณไม่ใช่เจ้าของของชาร์ตนี้", 
"2018": "กรุณาตรวจสอบเมตาชาร์ตอีกครั้ง", 
"2019": "ไม่สามารถอัปโหลดชาร์ตที่เสถียรแล้ว", 
"2020": "ข้อผิดพลาดเซิร์ฟเวอร์", 
"2021": "ไม่สามารถอัปโหลดไปยังเซิร์ฟเวอร์", 
"2022": "กรุณายกเลิกการอัปโหลดก่อนหน้านี้ก่อน", 
"2023": "ไม่สามารถตรวจสอบ BPM ได้", 
"2024": "ไฟล์ที่ถูกอัพโหลดมีเวอร์ชั่นเดียวกันอยู่บนเซิร์ฟเวอร์อยู่แล้ว จะมีการเปลี่ยนชื่อก่อนจะอัปโหลดใหม่อีกครั้ง", 
"2025": "โปรดเลือกรูปที่มีขนาดน้อยกว่า 2Mb", 
"2026":"Disk is full or not writable",
"2027":"Can't import this kind of file",
"2028":"No note selected",
"2029":"No more chart slots!\nEach chart occupys one slot until it is stabled. Try to get the uploaded charts stabled or purchase more slots.",
"2030":"Can't donate to unstable chart",
"2031":"Don't have enough gold to donate",
"2032":"Please submit score to review the chart",
"2033":"Disconnected from server",
"2034":"Can't add bpm at here",
"2035":"Incorrect bpm number",
"2036":"Can't perform this operation",
"2037":"Editing is available for active account",
"2038":"Background video size limit is 720p@25fps",
"2039":"Can't copy non-mc chart",
"2040":"Can't select mode for local skins",
"2041":"You don't have enough gold",
"2042":"Can't download the file",
"2043":"Can't join the room",
"2044":"Can't create new room",
"2045":"Please enter name of room",
"2046":"Already in room",
"2047":"Broken replay file",
"2048":"Can't play with empty chart",
"2049":"Failed to load chart",
"2050":"Turn off dynamic offset to submit score",
"2052":"The room is full",
"2053":"Score submission failed due to a bad score",
"2054":"The feature is in beta test",
"2055":"Chart not exist in store",
"2056":"Please add notes",
"2057":"You have 6 charts waiting for review already",
"2058":"Please upgrade to latest version to use the feature",
"2059":"Wrong password!",
"2060":"Some team's still empty. Balance out!",
"2061":"[Error] The chart needs proper Title,Artist,Version etc.",
"2062":"[Error] The chart contains overlap notes.",
"2063":"[Better] Add background image to the chart",
"2064":"[Error] The chart needs at least 60s playable time and proper note count",
"2100":"Please select one slide note",
"2101":"Please select at least 3 wipe notes",
"2102":"Please review chart before submission",
"2103":"Title or artist contains non-ascii characters",
"2104":"You have been banned!",
"2105":"Please enter basic infomation",
"2106":"Password must not be shorter than 8 characters",
"2107":"Password missmatching",
"2108":"This username has been registered",
"2109":"This email has been registered",
"2110":"Only a-z 0-9 and []()-_@ are allowed in Username which must not be shorter than 3 characters",
"2111":"Invalid Email",
"2112":"Failed to upload",
"2113": "Failed to convert audio file",
"2114": "Please select one chart",
"2115": "Wrong date format",
"2116": "You have changed username in 180 days",
"2117": "Failed to upload more charts due to some reasons",
"2118": "Please select Store Server from settings",
"2119": "Can not donate to your self",
"2120": "Please submit score before donation",
"2121": "You have donated 1000 gold to the chart",
"2122": "Invalid Host or Incompatible API",
"2123": "The server is about to restart, multiplayer has been disabled",
"2124": "Can not retrive file from server",
"2125": "Can not connect to Steam",
"2126": "You have no permission",
"2127": "Please select one skin",
"2128": "Can not find proper info for the skin",
"2129": "The Host has incompatible API",
"3000": "การเปลี่ยนแปลง จะถูกบันทึกไว้ ก่อนการทดสอบ", 
"3001": "บันทึกการเปลี่ยนแปลง ก่อนที่จะออก ?", 
"3002": "ไม่สามารถเปลี่ยนเเปลงโน็ตทั้งหมดได้", 
"3003": "ออก", 
"3004": "หัวข้อ", 
"3005": "ศิลปิน", 
"3006": "ไฟล์เสียง", 
"3007": "แฟ้ม ปก", 
"3008": "ไฟล์พื้นหลัง", 
"3009": "BPM", 
"3010": "ออฟเช็ท", 
"3011": "บันทึก", 
"3012": "ข้อมูล", 
"3013": "อัปโหลดไปยัง เซิร์ฟเวอร์", 
"3014": "ล้างโน็ตทั้งหมด", 
"3015": "ตรวจพบอัตโนมัติ", 
"3016": "เลื่อน ระยะเวลาและ เลือก สถานที่ ในตอนท้าย", 
"3017": "การทดสอบจาก ตำแหน่งปัจจุบัน", 
"3018": "ทดสอบ จากจุดเริ่มต้น", 
"3020": "อัปโหลดสำเร็จ", 
"3021": "บันทึกเรียบร้อยแล้ว", 
"3022": "ยกเลิก การอัปโหลด", 
"3023": "ยกเลิกการอัปโหลด จริงๆ ?", 
"3024": "ประสบความสำเร็จใน การตรวจสอบ ครั้งต่อนาที อัตโนมัติ", 
"3025": "ส่งผลลัพธ์", 
"3026": "ความไม่แน่นอน", 
"3027": "มันแสดงให้เห็น ที่จะขอ ใช้โปรแกรมแก้ไข อัตโนมัติ ระยะเวลา การวิเคราะห์ BPM และ ออฟเช็ท โดยอัตโนมัติ สำหรับ การแก้ไข ครั้งแรก อัตโนมัติ ระยะเวลาที่ อาจจะพบได้ ใน เมนู เมื่อมีการแก้ไข มิฉะนั้น BPM และออฟเซ็ท อาจจะตั้ง ด้วยตนเองจาก Mene -> Meta", 
"3028": "วิธีการทำให้ชาร์ตเสถียร", 
"3029":"Show online chart page",
"3030":"Column",
"3031": "ออกและบันทึก", 
"3032": "ออกโดยไม่บันทึก", 
"3033":"Purchase more chart slots",
"3034":"Current slots:",
"3035": "การแบ่ง", 
"3036": "ความเร็ว", 
"3037":"Toggles",
"3038":"Files list",
"3039":"Successfully exported to <export> folder",
"3040":"Export failed",
"3041":"Export chart package",
"3042":"Successfully exported to <Documents/export> folder",
"3043":"AutoSave every minute",
"3044":"Lock notes",
"3045":"Drop speed",
"3046":"Press the same button again to set the end",
"3047":"End of the line",
"3048":"POW! Wild MARLO appeared!",
"3049":"Bar Line Begin At",
"3050":"Set from Current Beat",
"3051":"Number of Hits",
"3052":"Submission",
"3053":"Submit chart for review",
"3054":"Waiting for review",
"3055":"Reviewing",
"3056":"Rejected",
"3057":"No record",
"3058":"Mark as Review",
"3059":"Mark as Reject",
"3060":"Cancel submission",
"3061":"Contact publisher",
"3062":"Contact creator",
"3063":"Download the chart",
"3064":"Select copy range",
"3065":"Paste",
"3066":"Cut",
"3067":"Flip notes horizontal",
"3068":"Grid settings",
"3069":"Grid lines",
"3070":"Grid align",
"3071":"Slide modify",
"3072":"Slide to Wipe",
"3073":"Wipe to Slide",
"3074":"Preview time",
"3075":"Original Title",
"3076":"Original Artist",
"3077":"Single Step",
"3078":"Creator",
"3079":"Upload",
"3080":"Test Play",
"3081":"Undo",
"3082":"Redo",
"3083": "BPM Detection",
"3084": "Public Keymap",
"3085": "Current Mode Keymap",
"3086": "Add",
"3087": "Remove",
"3088": "Apply BPM detection result to main timing point?",
"3089": "Full Divide Set",
"3090": "Do AI Review",
"3091": "Grid Scale",
"3092": "More Action",
"3093": "Show Statistics",
"3094": "Note Thickness",
"3095": "Scroll Multiplier",
"3096": "Note Align to Grid",
"3097": "Peer Review",
"3098": "Related Notes",
"3099": "Related Time",
"3100": "Reply",
"3101": "Issue Label",
"3102": "Open",
"3103": "Closed",
"3104": "Reopen",
"3105": "Invalid",
"3500": "Save",
"3501": "Test",
"3502": "",
"3503": "Volume+",
"3504": "Volume-",
"3505": "Key Volume+",
"3506": "Key Volume-",
"3507": "Speed+",
"3508": "Speed-",
"3509": "Play/Pause",
"3510": "Divide+",
"3511": "Divide-",
"3512": "Copy",
"3513": "Paste",
"3514": "Note Tool",
"3515": "Hold Tool",
"3516": "Select Tool",
"3517": "Delete Tool",
"3518": "Undo",
"3519": "Redo",
"3520": "Flip Notes",
"3521": "Open Bpm List",
"3522": "Open Information",
"3523": "Open Upload",
"3524": "Wipe Tool",
"3525": "Slide Tool",
"3526": "Split",
"3527": "Merge",
"3528": "Flick Tool",
"3529": "Change Size",
"3530": "Add Don",
"3531": "Add Ka",
"3532": "Add Roll",
"3533": "Add Balloon",
"3534": "Add Space",
"3535": "Move Left",
"3536": "Move Right",
"3537": "Cut",
"3538": "Delete Selects",
"3539": "Scale+",
"3540": "Scale-",
"3541": "Add Issue",
"3542": "Mute Key Sound",
"3543": "More Action",
"3600": "Back",
"3601": "Select Up",
"3602": "Select Down",
"3603": "Confirm",
"3604": "Toggle Play",
"3605": "Play Next",
"3606": "Play Last",
"3607": "Refresh Charts",
"3608": "Screenshot",
"3609": "Quick Retry",
"4000":"Unknown",
"4001":"Asia",
"4002":"Africa",
"4003":"North America",
"4004":"South America",
"4005":"Europe",
"4006":"Australia",
"4007":"Japan",
"4008":"China",
"4009":"United States",
"4010":"Taiwan (China)",
"4011":"Korea",
"4012":"Germany",
"4013":"Russian",
"4014":"Poland",
"4015":"France",
"4016":"Hong Kong (China)",
"4017":"Canada",
"4018":"Chile",
"4019":"Indonesia",
"4020":"Brazil",
"4021":"Thailand",
"4022":"Italy",
"4023":"United Kingdom",
"4024":"Argentina",
"4025":"Philippines",
"4026":"Finland",
"4027":"Netherlands",
"4028":"Malaysia",
"4029":"Spain",
"4030":"Mexico",
"4031":"Sweden",
"4032":"Singapore",
"4033":"New Zealand",
"4034":"Vietnam",
"4035":"Belgium",
"4036":"Switzerland",
"4037":"Austria",
"4038":"Bulgaria",
"4039": "Macau (China)",
"5000": "Welcome to Malody V, Would you like a tutorial?",
"5001": "Import local charts/skins/music etc.",
"5002": "Filter song list by favourite",
"5003": "Filter song list by play mode",
"5004": "Multiplayer lobby, Dan room",
"5005": "View chart/skin shared by other players",
"5006": "Daily quests",
"5007": "News from server",
"5008": "View friends or search other players",
"5009": "Chat with other online players",
"5010": "View download records, music controller",
"5011": "Add selected chart to collection",
"5012": "Change play difficulty/mods",
"5013": "View chart comments, global ranking",
"5014": "Change judge difficulty, custom judgement",
"5015": "Change note speed",
"5016": "Manage/Share chart",
"5017": "More options like offset and graphics are available when the game is paused",
"5018": "Donate gold to chart creator",
"5019": "Recommend/Not Recommend the chart to other players",
"5020": "Share chart replay",
"5021": "View technical statistics"
}
