{
  "edit.tip.open": "Open",
  "edit.tip.play": "Play",
  "edit.tip.save": "Save",
  "import.error": "启动失败",
  "import.file": "已接收文件:",
  "import.finish": "结束",
  "import.init": "等待启动",
  "import.noip": "无法获取IP (不在WIFI/局域网环境)",
  "import.run": "工作中",
  "import.start": "启动",
  "import.title": "局域网快传",
  "top.tip.collect": "收藏夹",
  "top.tip.dl": "下载",
  "top.tip.import": "导入",
  "top.tip.logout": "登出",
  "top.tip.mod": "Mod",
  "top.tip.mode": "模式",
  "top.tip.search": "搜索",
  "top.tip.setting": "设置",
  "top.tip.sort": "排序"
}