{
  "edit.tip.open": "Open",
  "edit.tip.play": "Play",
  "edit.tip.save": "Save",
  "import.error": "Failed",
  "import.file": "Files Received:",
  "import.finish": "Finish",
  "import.init": "Wait to Start",
  "import.noip": "No IP (Not in WIFI/LAN)",
  "import.run": "Working",
  "import.start": "Start",
  "import.title": "Share Server",
  "top.tip.collect": "Collection",
  "top.tip.dl": "Download",
  "top.tip.import": "Import",
  "top.tip.logout": "Logout",
  "top.tip.mod": "Mod",
  "top.tip.mode": "Mode",
  "top.tip.search": "Search",
  "top.tip.setting": "Setting",
  "top.tip.sort": "Sort"
}